// Jest Snapshot v1, https://goo.gl/fbAQLP

exports[`Initial Page Snapshot 1`] = `
<RNCSafeAreaView
  style={
    Array [
      Object {
        "backgroundColor": "#F4F7F9",
        "flex": 1,
      },
      undefined,
    ]
  }
>
  <BVLinearGradient
    colors={
      Array [
        4293722051,
        4289724160,
      ]
    }
    endPoint={
      Object {
        "x": 0.5,
        "y": 1,
      }
    }
    locations={null}
    startPoint={
      Object {
        "x": 0.5,
        "y": 0,
      }
    }
    style={
      Object {
        "flex": 1,
      }
    }
  >
    <View
      style={
        Object {
          "height": "100%",
          "justifyContent": "space-between",
        }
      }
    >
      <Image
        source={
          Object {
            "testUri": "../../../src/assets/Images/logo.png",
          }
        }
        style={
          Object {
            "height": 333.5,
            "marginTop": "10%",
            "overflow": "hidden",
            "resizeMode": "contain",
            "width": "auto",
          }
        }
      />
      <View
        style={
          Object {
            "height": "18%",
            "justifyContent": "space-between",
          }
        }
      >
        <Text
          style={
            Object {
              "color": "#202B46",
              "fontFamily": "PT Sans Bold",
              "fontSize": 49,
              "lineHeight": 59,
              "padding": 12,
              "textAlign": "center",
            }
          }
        >
           
          Improve booking management 
 & player experience
           
        </Text>
        <Text
          style={
            Object {
              "color": "#505C74",
              "fontFamily": "PT Sans",
              "fontSize": 33,
              "padding": 12,
              "textAlign": "center",
            }
          }
        >
           
          Trusted platform by many sports facility providers. Extend your services online.
           
        </Text>
      </View>
      <View
        style={
          Object {
            "height": 267,
            "justifyContent": "space-evenly",
            "marginBottom": "5%",
          }
        }
      >
        <View
          style={
            Object {
              "flexDirection": "row",
              "justifyContent": "space-evenly",
            }
          }
        >
          <View
            accessible={true}
            focusable={true}
            onClick={[Function]}
            onResponderGrant={[Function]}
            onResponderMove={[Function]}
            onResponderRelease={[Function]}
            onResponderTerminate={[Function]}
            onResponderTerminationRequest={[Function]}
            onStartShouldSetResponder={[Function]}
            style={
              Object {
                "alignItems": "center",
                "backgroundColor": null,
                "borderColor": "#202b46",
                "borderWidth": 1,
                "flexDirection": "row",
                "height": 80,
                "justifyContent": "center",
                "opacity": 1,
                "width": 337.5,
              }
            }
          >
            <Text
              style={
                Object {
                  "color": "#202b46",
                  "fontFamily": "PT Sans Narrow Bold",
                  "fontSize": 33,
                }
              }
            >
              LOGIN
            </Text>
          </View>
          <View
            accessible={true}
            focusable={true}
            onClick={[Function]}
            onResponderGrant={[Function]}
            onResponderMove={[Function]}
            onResponderRelease={[Function]}
            onResponderTerminate={[Function]}
            onResponderTerminationRequest={[Function]}
            onStartShouldSetResponder={[Function]}
            style={
              Object {
                "alignItems": "center",
                "backgroundColor": "#202b46",
                "borderColor": "#202b46",
                "borderWidth": 1,
                "flexDirection": "row",
                "height": 80,
                "justifyContent": "center",
                "opacity": 1,
                "width": 337.5,
              }
            }
          >
            <Text
              style={
                Object {
                  "color": "#FFFFFF",
                  "fontFamily": "PT Sans Narrow Bold",
                  "fontSize": 33,
                }
              }
            >
              SIGN UP
            </Text>
          </View>
        </View>
        <Text
          style={
            Object {
              "color": "#505C74",
              "fontFamily": "PT Sans",
              "fontSize": 24,
              "margin": 5,
              "textAlign": "center",
            }
          }
        >
          By tapping Continue, I agree to Continental Tires Extended Warranty’s Terms of Service, Payments Terms of Service, Privacy Policy and Nondiscrimination Policy
        </Text>
      </View>
    </View>
  </BVLinearGradient>
</RNCSafeAreaView>
`;
